100;PASSENGER;KIA;BLACK;2018;80000;11000;HATCHBACK;4;true
101weqesrq;PASSENGER;SKODA;WHITE;2010;93000;11000;HATCHBACK;4;true
102;PASSENGER;KIA;ORANGE;2016;112000;10300;HATCHBACK;4;true
103;PASSENGER;MERCEDES;BLACK;2011;112500;19500;HATCHBACK;2;true
104;PASSENGER;VOLKSWAGEN;RED;2019;65000;11500;HATCHBACK--088;4;false
105;CARGO;IVECO;WHITE;2020;12000;45000;20000
106;CARGO;IVECO;YELLOW;2014;350000;19000;4000
107;PASSENGER;HYUNDAI;ORANGE;2013;250000;13000;WAGON;4;true
108;PASSENGER;LADA;RED;2015;118000;7000;SEDAN;4;true
109;PASSENGER;VOLKSWAGEN;WHITE;2020;12000;11000;HATCHBACK;4;false
110;PASSENGER;SKODA123q;YELLOW;2018;33000;8000;HATCHBACK;4;true
111;PASSENGER;KIA;BLACK;2018;80000;11000;SEDAN;4;true
112;PASSENGER;SKODA;WHITE;2010;93000;11000;HATCHBACK;4;true
11fg3;PASSENGER;KIA;ORANGE;2016;112000;10300;HATCHBACK;4;true
114;PASSENGER;MERCEDES;BLACK;2011;112500;19500;HATCHBACK;2;true
115;PASSENGER;VOLKSWAGEN;RED;2019;65000;11500;MINIVAN;6;true
116;CARGO;MERCEDES;WHITE;2008;125000;32000;20000
117;CARGO;IVECO;YELLOW;2014;350000;19000;4000
118;PASSENGER;HYUNDAI;ORANGE;2013;250t000;13000;HATCHBACK;4;true
119;PASSENGER;LADA;RED;2015;118000;7000;HATCHBACK;4;true
120;PASSENGER;VOLKSWAGEN;WHIT34E;2020;12000;11000;HATCHBACK;4;false
121;PASSENGER;SKODA;YELLOW;2016;66000;8900;SEDAN;4;true